Ondas - Caminho de Dados.vcd
$date
	Tue May 31 18:26:30 2016
$end
$version
	Icarus Verilog
$end
$timescale
	1s
$end
$scope module simulacao $end
$var wire 2 ! ALUOp [1:0] $end
$var wire 1 " ALUSrc $end
$var wire 32 # ALUresult [31:0] $end
$var wire 32 $ Addresult [31:0] $end
$var wire 1 % Branch $end
$var wire 32 & ConstanteEstendidaDeslocada [31:0] $end
$var wire 32 ' ConstanteEstentida [31:0] $end
$var wire 32 ( Instruction [31:0] $end
$var wire 1 ) MemRead $end
$var wire 1 * MemWrite $end
$var wire 1 + MemtoReg $end
$var wire 32 , ReadData [31:0] $end
$var wire 32 - ReadData1 [31:0] $end
$var wire 32 . ReadData2 [31:0] $end
$var wire 1 / RegDst $end
$var wire 1 0 RegWrite $end
$var wire 32 1 WriteData [31:0] $end
$var wire 5 2 WriteRegister [4:0] $end
$var wire 1 3 Zero $end
$var wire 4 4 alucontrole [3:0] $end
$var wire 1 5 controleMux4 $end
$var wire 32 6 novoPC [31:0] $end
$var wire 32 7 pc4 [31:0] $end
$var wire 32 8 readAddress [31:0] $end
$var wire 32 9 valor2ALU [31:0] $end
$var reg 1 : clock $end
$scope module pc $end
$var wire 1 ; clock $end
$var wire 32 < novoPC [31:0] $end
$var reg 32 = address [31:0] $end
$upscope $end
$scope module instructionmemory $end
$var wire 32 > address [31:0] $end
$var wire 32 ? instruction [31:0] $end
$var integer 32 @ i [31:0] $end
$upscope $end
$scope module mux1 $end
$var wire 5 A EndRT [4:0] $end
$var wire 1 / RegDst $end
$var wire 5 B pedacoInstrucao [4:0] $end
$var reg 5 C EndEscRD [4:0] $end
$upscope $end
$scope module registersfile $end
$var wire 1 0 ControleEsc $end
$var wire 32 D DadoRD [31:0] $end
$var wire 32 E DadoRS [31:0] $end
$var wire 32 F DadoRT [31:0] $end
$var wire 5 G EndEscRD [4:0] $end
$var wire 5 H EndRS [4:0] $end
$var wire 5 I EndRT [4:0] $end
$var wire 1 ; clock $end
$var integer 32 J i [31:0] $end
$upscope $end
$scope module mux2 $end
$var wire 1 " ALUSrc $end
$var wire 32 K ReadData2 [31:0] $end
$var wire 32 L instrucaoEstendida [31:0] $end
$var reg 32 M valor2ALU [31:0] $end
$upscope $end
$scope module alu $end
$var wire 32 N A [31:0] $end
$var wire 4 O ALUcontrole [3:0] $end
$var wire 32 P B [31:0] $end
$var wire 1 3 Zero $end
$var reg 32 Q resultado [31:0] $end
$upscope $end
$scope module datamemory $end
$var wire 32 R Address [31:0] $end
$var wire 1 ) MemRead $end
$var wire 1 * MemWrite $end
$var wire 32 S WriteData [31:0] $end
$var wire 1 ; clock $end
$var reg 32 T ReadData [31:0] $end
$var integer 32 U i [31:0] $end
$upscope $end
$scope module mux3 $end
$var wire 32 V ALUresult [31:0] $end
$var wire 1 + MemtoReg $end
$var wire 32 W ReadData [31:0] $end
$var reg 32 X WriteData [31:0] $end
$upscope $end
$scope module control $end
$var wire 6 Y Opcode [5:0] $end
$var reg 2 Z ALUOp [1:0] $end
$var reg 1 [ ALUSrc $end
$var reg 1 \ Branch $end
$var reg 1 ] MemRead $end
$var reg 1 ^ MemWrite $end
$var reg 1 _ MemtoReg $end
$var reg 1 ` RegDst $end
$var reg 1 a RegWrite $end
$upscope $end
$scope module signextend $end
$var wire 16 b entrada [15:0] $end
$var reg 32 c saida [31:0] $end
$upscope $end
$scope module alucontrol $end
$var wire 2 d ALUOp [1:0] $end
$var wire 6 e codigoFuncao [5:0] $end
$var reg 4 f ALUcontrole [3:0] $end
$upscope $end
$scope module pcmais4 $end
$var wire 32 g pc [31:0] $end
$var wire 32 h saida [31:0] $end
$upscope $end
$scope module shiftleft $end
$var wire 32 i entrada [31:0] $end
$var reg 32 j saida [31:0] $end
$upscope $end
$scope module addalu $end
$var wire 32 k Addresult [31:0] $end
$var wire 32 l pcincrementado [31:0] $end
$var wire 32 m valorEstendidoDeslocado [31:0] $end
$upscope $end
$scope module portaand $end
$var wire 1 % branch $end
$var wire 1 5 controleMux $end
$var wire 1 3 zero $end
$upscope $end
$scope module mux4 $end
$var wire 32 n Addresult [31:0] $end
$var wire 1 5 controleMux $end
$var wire 32 o pcincrementado [31:0] $end
$var reg 32 p novoPC [31:0] $end
$upscope $end
$upscope $end
$enddefinitions $end
#0
$dumpvars
b0 p
bx o
bx n
b0xxxxxxxxxxxxxxxx00 m
bx l
bx k
b0xxxxxxxxxxxxxxxx00 j
b0xxxxxxxxxxxxxxxx i
bx h
bx g
b10 f
bx e
b10 d
b0xxxxxxxxxxxxxxxx c
bx b
1a
1`
0_
0^
0]
0\
0[
b10 Z
bx Y
bx X
bx W
bx V
b10000000000000 U
bx T
bx S
bx R
bx Q
bx P
b10 O
bx N
bx M
b0xxxxxxxxxxxxxxxx L
bx K
b100000 J
bx I
bx H
bx G
bx F
bx E
bx D
bx C
bx B
bx A
b10000000000000 @
bx ?
bx >
bx =
b0 <
0;
0:
bx 9
bx 8
bx 7
b0 6
05
b10 4
x3
bx 2
bx 1
10
1/
bx .
bx -
bx ,
0+
0*
0)
bx (
b0xxxxxxxxxxxxxxxx '
b0xxxxxxxxxxxxxxxx00 &
0%
bx $
bx #
0"
b10 !
$end
#1
b10 X
b10 1
b10 D
b100 p
b100 6
b100 <
b10 Q
03
b10 #
b10 R
b10 V
b1000 j
b1100 $
b1100 k
b1100 n
b1000 &
b1000 m
1[
1"
b0 Z
b0 !
b0 d
0`
0/
b10 M
b10 9
b10 P
b1000 C
b1000 2
b1000 G
b10 c
b10 '
b10 L
b10 i
b1000 Y
b1000 I
b0 .
b0 F
b0 K
b0 S
b0 H
b0 -
b0 E
b0 N
b1000 A
b0 B
b10 e
b10 b
b100 7
b100 h
b100 l
b100 o
bx T
b0 =
b100000000010000000000000000010 (
b100000000010000000000000000010 ?
b0 8
b0 >
b0 g
1:
1;
#2
bx000000101010110110101000 T
bx000000101010110110101000 ,
bx000000101010110110101000 W
b10 .
b10 F
b10 K
b10 S
0:
0;
#3
b1001 C
b1001 2
b1001 G
b1000 p
b1000 6
b1000 <
b1001 I
b0 .
b0 F
b0 K
b0 S
b1001 A
b10000 $
b10000 k
b10000 n
b1000 7
b1000 h
b1000 l
b1000 o
bx000000101010110110101000 T
b100 =
b100000000010010000000000000010 (
b100000000010010000000000000010 ?
b100 8
b100 >
b100 g
1:
1;
#4
bx000000101010110110101000 T
b10 .
b10 F
b10 K
b10 S
0:
0;
#5
15
13
b110 f
b110 4
b110 O
b0 X
b0 1
b0 D
1\
1%
0a
00
x_
x+
x`
x/
0[
0"
b1 Z
b1 !
b1 d
b0 Q
b0 #
b0 R
b0 V
b10100 p
b10100 6
b10100 <
b100 Y
b1000 H
b10 -
b10 E
b10 N
b10100 $
b10100 k
b10100 n
b1100 7
b1100 h
b1100 l
b1100 o
bx000000101010110110101000 T
b1000 =
b10001000010010000000000000010 (
b10001000010010000000000000010 ?
b1000 8
b1000 >
b1000 g
1:
1;
#6
bx000010000000000000000010 T
bx000010000000000000000010 ,
bx000010000000000000000010 W
0:
0;
#7
b10 f
b10 4
b10 O
b11 X
b11 1
b11 D
b11 Q
03
b11 #
b11 R
b11 V
05
b1100 j
b1100 &
b1100 m
1[
1"
0\
0%
1a
10
0`
0/
0_
0+
b0 Z
b0 !
b0 d
b11 M
b11 9
b11 P
b1101 C
b1101 2
b1101 G
b11 c
b11 '
b11 L
b11 i
b11000 p
b11000 6
b11000 <
b1000 Y
b0 H
b0 -
b0 E
b0 N
b1101 I
b0 .
b0 F
b0 K
b0 S
b1101 A
b11 e
b11 b
b100100 $
b100100 k
b100100 n
b11000 7
b11000 h
b11000 l
b11000 o
bx000010000000000000000010 T
b10100 =
b100000000011010000000000000011 (
b100000000011010000000000000011 ?
b10100 8
b10100 >
b10100 g
1:
1;
#8
bx101011011010100000000111 T
bx101011011010100000000111 ,
bx101011011010100000000111 W
b11 .
b11 F
b11 K
b11 S
0:
0;
#9
b10 X
b10 1
b10 D
b10 Q
b10 #
b10 R
b10 V
b1000 j
b1000 &
b1000 m
b10 M
b10 9
b10 P
b1000 C
b1000 2
b1000 G
b10 c
b10 '
b10 L
b10 i
b11100 p
b11100 6
b11100 <
b1000 I
b10 .
b10 F
b10 K
b10 S
b1000 A
b10 e
b10 b
b100100 $
b100100 k
b100100 n
b11100 7
b11100 h
b11100 l
b11100 o
bx101011011010100000000111 T
b11000 =
b100000000010000000000000000010 (
b100000000010000000000000000010 ?
b11000 8
b11000 >
b11000 g
1:
1;
#10
bx000000101010110110101000 T
bx000000101010110110101000 ,
bx000000101010110110101000 W
0:
0;
#11
b11111010011 X
b11111010011 1
b11111010011 D
b1111101000000 j
b1111101000000 &
b1111101000000 m
b11111010000 M
b11111010000 9
b11111010000 P
1^
1*
0a
00
x_
x+
x`
x/
1[
1"
b0 Z
b0 !
b0 d
b11111010011 Q
b11111010011 #
b11111010011 R
b11111010011 V
b11111010000 c
b11111010000 '
b11111010000 L
b11111010000 i
b100000 p
b100000 6
b100000 <
b101011 Y
b1101 H
b11 -
b11 E
b11 N
b10000 e
b11111010000 b
b1111101100000 $
b1111101100000 k
b1111101100000 n
b100000 7
b100000 h
b100000 l
b100000 o
bx000000101010110110101000 T
b11100 =
b10101101101010000000011111010000 (
b10101101101010000000011111010000 ?
b11100 8
b11100 >
b11100 g
1:
1;
#12
bx000000000000000000000010 T
bx000000000000000000000010 ,
bx000000000000000000000010 W
0:
0;
#13
bx000000000000000000000010 X
bx000000000000000000000010 1
bx000000000000000000000010 D
1]
1)
1a
10
0`
0/
0^
0*
1_
1+
1[
1"
b0 Z
b0 !
b0 d
b100100 p
b100100 6
b100100 <
b100011 Y
b1111101100100 $
b1111101100100 k
b1111101100100 n
b100100 7
b100100 h
b100100 l
b100100 o
bx000000000000000000000010 T
b100000 =
b10001101101010000000011111010000 (
b10001101101010000000011111010000 ?
b100000 8
b100000 >
b100000 g
1:
1;
#14
b10 X
b10 1
b10 D
b10 T
b10 ,
b10 W
bx000000000000000000000010 .
bx000000000000000000000010 F
bx000000000000000000000010 K
bx000000000000000000000010 S
0:
0;
#15
b1001011000000 j
b1001011000000 &
b1001011000000 m
b10010110000 M
b10010110000 9
b10010110000 P
b10010110000 Q
b10010110000 #
b10010110000 R
b10010110000 V
b10010110000 c
b10010110000 '
b10010110000 L
b10010110000 i
b101000 p
b101000 6
b101000 <
b10000 H
b0 -
b0 E
b0 N
b110000 e
b10010110000 b
b1001011101000 $
b1001011101000 k
b1001011101000 n
b101000 7
b101000 h
b101000 l
b101000 o
b10 T
b100100 =
b10001110000010000000010010110000 (
b10001110000010000000010010110000 ?
b100100 8
b100100 >
b100100 g
1:
1;
#16
b10010110 X
b10010110 1
b10010110 D
b10010110 ,
b10010110 W
b10010110 T
b10 .
b10 F
b10 K
b10 S
0:
0;
#17
b1001010111000 j
b1001010111000 &
b1001010111000 m
b10010101110 M
b10010101110 9
b10010101110 P
b10010110000 Q
b10010110000 #
b10010110000 R
b10010110000 V
b10010101110 c
b10010101110 '
b10010101110 L
b10010101110 i
b101100 p
b101100 6
b101100 <
b1001 H
b10 -
b10 E
b10 N
b101110 e
b10010101110 b
b1001011100100 $
b1001011100100 k
b1001011100100 n
b101100 7
b101100 h
b101100 l
b101100 o
b10010110 T
b101000 =
b10001101001010000000010010101110 (
b10001101001010000000010010101110 ?
b101000 8
b101000 >
b101000 g
1:
1;
#18
b10010110 T
b10010110 .
b10010110 F
b10010110 K
b10010110 S
0:
0;
#19
13
b0 X
b0 1
b0 D
b0 j
b0 &
b0 m
1`
1/
0_
0+
0]
0)
0[
0"
b10 Z
b10 !
b10 d
b0 M
b0 9
b0 P
b0 Q
b0 #
b0 R
b0 V
b0 C
b0 2
b0 G
b0 c
b0 '
b0 L
b0 i
b110000 p
b110000 6
b110000 <
b0 Y
b0 I
b0 .
b0 F
b0 K
b0 S
b0 H
b0 -
b0 E
b0 N
b0 A
b0 e
b0 b
b110000 $
b110000 k
b110000 n
b110000 7
b110000 h
b110000 l
b110000 o
b10010110 T
b101100 =
b0 (
b0 ?
b101100 8
b101100 >
b101100 g
1:
1;
#20
b10000000000000000010 T
b10000000000000000010 ,
b10000000000000000010 W
0:
0;
#21
b110100 p
b110100 6
b110100 <
b110100 $
b110100 k
b110100 n
b110100 7
b110100 h
b110100 l
b110100 o
b10000000000000000010 T
b110000 =
b110000 8
b110000 >
b110000 g
1:
1;
#22
b10000000000000000010 T
0:
0;
#23
b111000 p
b111000 6
b111000 <
b111000 $
b111000 k
b111000 n
b111000 7
b111000 h
b111000 l
b111000 o
b10000000000000000010 T
b110100 =
b110100 8
b110100 >
b110100 g
1:
1;
#24
b10000000000000000010 T
0:
0;
#25
b111100 p
b111100 6
b111100 <
b111100 $
b111100 k
b111100 n
b111100 7
b111100 h
b111100 l
b111100 o
b10000000000000000010 T
b111000 =
b111000 8
b111000 >
b111000 g
1:
1;
#26
b10000000000000000010 T
0:
0;
#27
b1000000 p
b1000000 6
b1000000 <
b1000000 $
b1000000 k
b1000000 n
b1000000 7
b1000000 h
b1000000 l
b1000000 o
b10000000000000000010 T
b111100 =
b111100 8
b111100 >
b111100 g
1:
1;
#28
b10000000000000000010 T
0:
0;
#29
b1000100 p
b1000100 6
b1000100 <
b1000100 $
b1000100 k
b1000100 n
b1000100 7
b1000100 h
b1000100 l
b1000100 o
b10000000000000000010 T
b1000000 =
b1000000 8
b1000000 >
b1000000 g
1:
1;
#30
b10000000000000000010 T
0:
0;
#31
b1001000 p
b1001000 6
b1001000 <
b1001000 $
b1001000 k
b1001000 n
b1001000 7
b1001000 h
b1001000 l
b1001000 o
b10000000000000000010 T
b1000100 =
b1000100 8
b1000100 >
b1000100 g
1:
1;
#32
b10000000000000000010 T
0:
0;
#33
b1001100 p
b1001100 6
b1001100 <
b1001100 $
b1001100 k
b1001100 n
b1001100 7
b1001100 h
b1001100 l
b1001100 o
b10000000000000000010 T
b1001000 =
b1001000 8
b1001000 >
b1001000 g
1:
1;
#34
b10000000000000000010 T
0:
0;
#35
b1010000 p
b1010000 6
b1010000 <
b1010000 $
b1010000 k
b1010000 n
b1010000 7
b1010000 h
b1010000 l
b1010000 o
b10000000000000000010 T
b1001100 =
b1001100 8
b1001100 >
b1001100 g
1:
1;
#36
b10000000000000000010 T
0:
0;
#37
b1010100 p
b1010100 6
b1010100 <
b1010100 $
b1010100 k
b1010100 n
b1010100 7
b1010100 h
b1010100 l
b1010100 o
b10000000000000000010 T
b1010000 =
b1010000 8
b1010000 >
b1010000 g
1:
1;
#38
b10000000000000000010 T
0:
0;
#39
b1011000 p
b1011000 6
b1011000 <
b1011000 $
b1011000 k
b1011000 n
b1011000 7
b1011000 h
b1011000 l
b1011000 o
b10000000000000000010 T
b1010100 =
b1010100 8
b1010100 >
b1010100 g
1:
1;
#40
b10000000000000000010 T
0:
0;
#41
b1011100 p
b1011100 6
b1011100 <
b1011100 $
b1011100 k
b1011100 n
b1011100 7
b1011100 h
b1011100 l
b1011100 o
b10000000000000000010 T
b1011000 =
b1011000 8
b1011000 >
b1011000 g
1:
1;
#42
b10000000000000000010 T
0:
0;
#43
b1100000 p
b1100000 6
b1100000 <
b1100000 $
b1100000 k
b1100000 n
b1100000 7
b1100000 h
b1100000 l
b1100000 o
b10000000000000000010 T
b1011100 =
b1011100 8
b1011100 >
b1011100 g
1:
1;
#44
b10000000000000000010 T
0:
0;
#45
b1100100 p
b1100100 6
b1100100 <
b1100100 $
b1100100 k
b1100100 n
b1100100 7
b1100100 h
b1100100 l
b1100100 o
b10000000000000000010 T
b1100000 =
b1100000 8
b1100000 >
b1100000 g
1:
1;
#46
b10000000000000000010 T
0:
0;
#47
b1101000 p
b1101000 6
b1101000 <
b1101000 $
b1101000 k
b1101000 n
b1101000 7
b1101000 h
b1101000 l
b1101000 o
b10000000000000000010 T
b1100100 =
b1100100 8
b1100100 >
b1100100 g
1:
1;
#48
b10000000000000000010 T
0:
0;
#49
b1101100 p
b1101100 6
b1101100 <
b1101100 $
b1101100 k
b1101100 n
b1101100 7
b1101100 h
b1101100 l
b1101100 o
b10000000000000000010 T
b1101000 =
b1101000 8
b1101000 >
b1101000 g
1:
1;
#50
b10000000000000000010 T
0:
0;
#51
b1110000 p
b1110000 6
b1110000 <
b1110000 $
b1110000 k
b1110000 n
b1110000 7
b1110000 h
b1110000 l
b1110000 o
b10000000000000000010 T
b1101100 =
b1101100 8
b1101100 >
b1101100 g
1:
1;
#52
b10000000000000000010 T
0:
0;
#53
b1110100 p
b1110100 6
b1110100 <
b1110100 $
b1110100 k
b1110100 n
b1110100 7
b1110100 h
b1110100 l
b1110100 o
b10000000000000000010 T
b1110000 =
b1110000 8
b1110000 >
b1110000 g
1:
1;
#54
b10000000000000000010 T
0:
0;
#55
b1111000 p
b1111000 6
b1111000 <
b1111000 $
b1111000 k
b1111000 n
b1111000 7
b1111000 h
b1111000 l
b1111000 o
b10000000000000000010 T
b1110100 =
b1110100 8
b1110100 >
b1110100 g
1:
1;
#56
b10000000000000000010 T
0:
0;
#57
b1111100 p
b1111100 6
b1111100 <
b1111100 $
b1111100 k
b1111100 n
b1111100 7
b1111100 h
b1111100 l
b1111100 o
b10000000000000000010 T
b1111000 =
b1111000 8
b1111000 >
b1111000 g
1:
1;
#58
b10000000000000000010 T
0:
0;
#59
b10000000 p
b10000000 6
b10000000 <
b10000000 $
b10000000 k
b10000000 n
b10000000 7
b10000000 h
b10000000 l
b10000000 o
b10000000000000000010 T
b1111100 =
b1111100 8
b1111100 >
b1111100 g
1:
1;
#60
b10000000000000000010 T
0:
0;
#61
b10000100 p
b10000100 6
b10000100 <
b10000100 $
b10000100 k
b10000100 n
b10000100 7
b10000100 h
b10000100 l
b10000100 o
b10000000000000000010 T
b10000000 =
b10000000 8
b10000000 >
b10000000 g
1:
1;
#62
b10000000000000000010 T
0:
0;
#63
b10001000 p
b10001000 6
b10001000 <
b10001000 $
b10001000 k
b10001000 n
b10001000 7
b10001000 h
b10001000 l
b10001000 o
b10000000000000000010 T
b10000100 =
b10000100 8
b10000100 >
b10000100 g
1:
1;
#64
b10000000000000000010 T
0:
0;
#65
b10001100 p
b10001100 6
b10001100 <
b10001100 $
b10001100 k
b10001100 n
b10001100 7
b10001100 h
b10001100 l
b10001100 o
b10000000000000000010 T
b10001000 =
b10001000 8
b10001000 >
b10001000 g
1:
1;
#66
b10000000000000000010 T
0:
0;
#67
b10010000 p
b10010000 6
b10010000 <
b10010000 $
b10010000 k
b10010000 n
b10010000 7
b10010000 h
b10010000 l
b10010000 o
b10000000000000000010 T
b10001100 =
b10001100 8
b10001100 >
b10001100 g
1:
1;
#68
b10000000000000000010 T
0:
0;
#69
b10010100 p
b10010100 6
b10010100 <
b10010100 $
b10010100 k
b10010100 n
b10010100 7
b10010100 h
b10010100 l
b10010100 o
b10000000000000000010 T
b10010000 =
b10010000 8
b10010000 >
b10010000 g
1:
1;
#70
b10000000000000000010 T
0:
0;
#71
b10011000 p
b10011000 6
b10011000 <
b10011000 $
b10011000 k
b10011000 n
b10011000 7
b10011000 h
b10011000 l
b10011000 o
b10000000000000000010 T
b10010100 =
b10010100 8
b10010100 >
b10010100 g
1:
1;
#72
b10000000000000000010 T
0:
0;
#73
b10011100 p
b10011100 6
b10011100 <
b10011100 $
b10011100 k
b10011100 n
b10011100 7
b10011100 h
b10011100 l
b10011100 o
b10000000000000000010 T
b10011000 =
b10011000 8
b10011000 >
b10011000 g
1:
1;
#74
b10000000000000000010 T
0:
0;
#75
b10100000 p
b10100000 6
b10100000 <
b10100000 $
b10100000 k
b10100000 n
b10100000 7
b10100000 h
b10100000 l
b10100000 o
b10000000000000000010 T
b10011100 =
b10011100 8
b10011100 >
b10011100 g
1:
1;
#76
b10000000000000000010 T
0:
0;
#77
b10100100 p
b10100100 6
b10100100 <
b10100100 $
b10100100 k
b10100100 n
b10100100 7
b10100100 h
b10100100 l
b10100100 o
b10000000000000000010 T
b10100000 =
b10100000 8
b10100000 >
b10100000 g
1:
1;
#78
b10000000000000000010 T
0:
0;
#79
b10101000 p
b10101000 6
b10101000 <
b10101000 $
b10101000 k
b10101000 n
b10101000 7
b10101000 h
b10101000 l
b10101000 o
b10000000000000000010 T
b10100100 =
b10100100 8
b10100100 >
b10100100 g
1:
1;
#80
b10000000000000000010 T
0:
0;
#81
b10101100 p
b10101100 6
b10101100 <
b10101100 $
b10101100 k
b10101100 n
b10101100 7
b10101100 h
b10101100 l
b10101100 o
b10000000000000000010 T
b10101000 =
b10101000 8
b10101000 >
b10101000 g
1:
1;
#82
b10000000000000000010 T
0:
0;
#83
b10110000 p
b10110000 6
b10110000 <
b10110000 $
b10110000 k
b10110000 n
b10110000 7
b10110000 h
b10110000 l
b10110000 o
b10000000000000000010 T
b10101100 =
b10101100 8
b10101100 >
b10101100 g
1:
1;
#84
b10000000000000000010 T
0:
0;
#85
b10110100 p
b10110100 6
b10110100 <
b10110100 $
b10110100 k
b10110100 n
b10110100 7
b10110100 h
b10110100 l
b10110100 o
b10000000000000000010 T
b10110000 =
b10110000 8
b10110000 >
b10110000 g
1:
1;
#86
b10000000000000000010 T
0:
0;
#87
b10111000 p
b10111000 6
b10111000 <
b10111000 $
b10111000 k
b10111000 n
b10111000 7
b10111000 h
b10111000 l
b10111000 o
b10000000000000000010 T
b10110100 =
b10110100 8
b10110100 >
b10110100 g
1:
1;
#88
b10000000000000000010 T
0:
0;
#89
b10111100 p
b10111100 6
b10111100 <
b10111100 $
b10111100 k
b10111100 n
b10111100 7
b10111100 h
b10111100 l
b10111100 o
b10000000000000000010 T
b10111000 =
b10111000 8
b10111000 >
b10111000 g
1:
1;
#90
b10000000000000000010 T
0:
0;
#91
b11000000 p
b11000000 6
b11000000 <
b11000000 $
b11000000 k
b11000000 n
b11000000 7
b11000000 h
b11000000 l
b11000000 o
b10000000000000000010 T
b10111100 =
b10111100 8
b10111100 >
b10111100 g
1:
1;
#92
b10000000000000000010 T
0:
0;
#93
b11000100 p
b11000100 6
b11000100 <
b11000100 $
b11000100 k
b11000100 n
b11000100 7
b11000100 h
b11000100 l
b11000100 o
b10000000000000000010 T
b11000000 =
b11000000 8
b11000000 >
b11000000 g
1:
1;
#94
b10000000000000000010 T
0:
0;
#95
b11001000 p
b11001000 6
b11001000 <
b11001000 $
b11001000 k
b11001000 n
b11001000 7
b11001000 h
b11001000 l
b11001000 o
b10000000000000000010 T
b11000100 =
b11000100 8
b11000100 >
b11000100 g
1:
1;
#96
b10000000000000000010 T
0:
0;
#97
b11001100 p
b11001100 6
b11001100 <
b11001100 $
b11001100 k
b11001100 n
b11001100 7
b11001100 h
b11001100 l
b11001100 o
b10000000000000000010 T
b11001000 =
b11001000 8
b11001000 >
b11001000 g
1:
1;
#98
b10000000000000000010 T
0:
0;
#99
b11010000 p
b11010000 6
b11010000 <
b11010000 $
b11010000 k
b11010000 n
b11010000 7
b11010000 h
b11010000 l
b11010000 o
b10000000000000000010 T
b11001100 =
b11001100 8
b11001100 >
b11001100 g
1:
1;
#100
b10000000000000000010 T
0:
0;
